hyperparameter-tuning – Lab-6-8
…
types <- c("clim", "geol", "soil", "topo", "vege", "hydro")

remote_files  <- glue('{root}/camels_{types}.txt')
local_files   <- glue('data/camels_{types}.txt')

walk2(remote_files, local_files, download.file, quiet = TRUE)

camels <- map(local_files, read_delim, show_col_types = FALSE)

camels <- power_full_join(camels ,by = 'gauge_id')

print(camels)

# A tibble: 671 × 58
   gauge_id p_mean pet_mean p_seasonality frac_snow aridity high_prec_freq
   <chr>     <dbl>    <dbl>         <dbl>     <dbl>   <dbl>          <dbl>
 1 01013500   3.13     1.97        0.188      0.313   0.631           13.0
 2 01022500   3.61     2.12       -0.115      0.245   0.587           20.6
 3 01030500   3.27     2.04        0.0474     0.277   0.624           17.2
 4 01031500   3.52     2.07        0.104      0.292   0.588           18.9
 5 01047000   3.32     2.09        0.148      0.280   0.629           20.1
 6 01052500   3.73     2.10        0.152      0.353   0.562           13.5
 7 01054200   4.07     2.13        0.105      0.300   0.523           17.5
 8 01055000   3.49     2.09        0.167      0.306   0.599           19.2
 9 01057000   3.57     2.13        0.0791     0.251   0.597           20.4
10 01073000   3.50     2.21        0.0304     0.175   0.630           20.8
# ℹ 661 more rows
# ℹ 51 more variables: high_prec_dur <dbl>, high_prec_timing <chr>,
#   low_prec_freq <dbl>, low_prec_dur <dbl>, low_prec_timing <chr>,
#   geol_1st_class <chr>, glim_1st_class_frac <dbl>, geol_2nd_class <chr>,
#   glim_2nd_class_frac <dbl>, carbonate_rocks_frac <dbl>, geol_porostiy <dbl>,
#   geol_permeability <dbl>, soil_depth_pelletier <dbl>,
#   soil_depth_statsgo <dbl>, soil_porosity <dbl>, soil_conductivity <dbl>, …
…
final_fit <- last_fit(fin_wrkflw, split = start_split)
collect_metrics(final_fit)

# A tibble: 2 × 4
  .metric .estimator .estimate .config             
  <chr>   <chr>          <dbl> <chr>               
1 rmse    standard      0.0589 Preprocessor1_Model1
2 rsq     standard      0.936  Preprocessor1_Model1

The RMSE is 0.058, while the RSQ is 0.936. Since the RMSE value is low, and the RSQ value is close to 1, this means that this final_fit model is accurate to some extent, according to these 2 values produced.

test_predictions <- collect_predictions(final_fit)
print(test_predictions)

# A tibble: 102 × 5
   .pred id                .row runoff_ratio .config             
   <dbl> <chr>            <int>        <dbl> <chr>               
 1 0.545 train/test split     1        0.602 Preprocessor1_Model1
 2 0.514 train/test split    15        0.543 Preprocessor1_Model1
 3 0.584 train/test split    17        0.570 Preprocessor1_Model1
 4 0.601 train/test split    19        0.564 Preprocessor1_Model1
 5 0.506 train/test split    28        0.550 Preprocessor1_Model1
 6 0.347 train/test split    37        0.337 Preprocessor1_Model1
 7 0.369 train/test split    38        0.352 Preprocessor1_Model1
 8 0.305 train/test split    44        0.332 Preprocessor1_Model1
 9 0.343 train/test split    46        0.353 Preprocessor1_Model1
10 0.336 train/test split    47        0.329 Preprocessor1_Model1
# ℹ 92 more rows
…
